{
    "/../public/assets/admin/css/style.bundle.css": "/../public/assets/admin/css/style.bundle.css",
    "/../public/assets/admin/css/app.css": "/../public/assets/admin/css/app.css",
    "/../public/assets/front/css/style.bundle.css": "/../public/assets/front/css/style.bundle.css",
    "/C:/laragon/www/noah/public/assets/admin/js/dashboard.js": "/C:/laragon/www/noah/public/assets/admin/js/dashboard.js",
    "/C:/laragon/www/noah/public/assets/admin/js/scripts.bundle.js": "/C:/laragon/www/noah/public/assets/admin/js/scripts.bundle.js",
    "/C:/laragon/www/noah/public/assets/front/js/dashboard.js": "/C:/laragon/www/noah/public/assets/front/js/dashboard.js",
    "/C:/laragon/www/noah/public/assets/front/js/scripts.bundle.js": "/C:/laragon/www/noah/public/assets/front/js/scripts.bundle.js"
}
